…
```r
data_1 <- na.omit(data)
by_date <- group_by(data_1, date)
total_steps <- summarise(by_date, sum(steps, na.rm = TRUE))
names(total_steps) <- c("date", "steps")
total_steps
```

```
## # A tibble: 53 x 2
##          date steps
##        <fctr> <int>
##  1 2012-10-02   126
##  2 2012-10-03 11352
##  3 2012-10-04 12116
##  4 2012-10-05 13294
##  5 2012-10-06 15420
##  6 2012-10-07 11015
##  7 2012-10-09 12811
##  8 2012-10-10  9900
##  9 2012-10-11 10304
## 10 2012-10-12 17382
## # ... with 43 more rows
```
…
* Now, let's check the average daily activity pattern

Format the data


```r
data_2 <- group_by(data, interval)
by_interval <- summarise(data_2, average_steps = mean(steps, na.rm = TRUE))
by_interval
```

```
## # A tibble: 288 x 2
##    interval average_steps
##       <int>         <dbl>
##  1        0     1.7169811
##  2        5     0.3396226
##  3       10     0.1320755
##  4       15     0.1509434
##  5       20     0.0754717
##  6       25     2.0943396
##  7       30     0.5283019
##  8       35     0.8679245
##  9       40     0.0000000
## 10       45     1.4716981
## # ... with 278 more rows
```
…
